{
  "project_info": {
    "project_number": "907184857278",
    "firebase_url": "https://myfirebase-455a1.firebaseio.com",
    "project_id": "myfirebase-455a1",
    "storage_bucket": "myfirebase-455a1.appspot.com"
  },
  "client": [
    {
      "client_info": {
        "mobilesdk_app_id": "1:907184857278:android:d6508d217ebf77b6",
        "android_client_info": {
          "package_name": "com.example.raina.firebase"
        }
      },
      "oauth_client": [
        {
          "client_id": "907184857278-v1gbast80mgvctdiu9jp3c6aenhrau8c.apps.googleusercontent.com",
          "client_type": 1,
          "android_info": {
            "package_name": "com.example.raina.firebase",
            "certificate_hash": "d72daf80ad5ef887429ee7842c27698584faa09d"
          }
        },
        {
          "client_id": "907184857278-hlu8sc4405vu2bl2joqf19vgchalj140.apps.googleusercontent.com",
          "client_type": 3
        }
      ],
      "api_key": [
        {
          "current_key": "AIzaSyD5dRr0DyP_EOqO8S2MnxjyK5MAwL9sPyg"
        }
      ],
      "services": {
        "analytics_service": {
          "status": 1
        },
        "appinvite_service": {
          "status": 2,
          "other_platform_oauth_client": [
            {
              "client_id": "907184857278-hlu8sc4405vu2bl2joqf19vgchalj140.apps.googleusercontent.com",
              "client_type": 3
            }
          ]
        },
        "ads_service": {
          "status": 2
        }
      }
    }
  ],
  "configuration_version": "1"
}